%YAML 1.1
%TAG !u! tag:unity3d.com,2011:
--- !u!1001 &100100000
Prefab:
  m_ObjectHideFlags: 1
  serializedVersion: 2
  m_Modification:
    m_TransformParent: {fileID: 0}
    m_Modifications: []
    m_RemovedComponents: []
  m_ParentPrefab: {fileID: 0}
  m_RootGameObject: {fileID: 1804803424799282}
  m_IsPrefabParent: 1
--- !u!1 &1804803424799282
GameObject:
  m_ObjectHideFlags: 0
  m_PrefabParentObject: {fileID: 0}
  m_PrefabInternal: {fileID: 100100000}
  serializedVersion: 5
  m_Component:
  - component: {fileID: 4043674211349132}
  - component: {fileID: 120299439688197072}
  - component: {fileID: 114291481985681612}
  m_Layer: 0
  m_Name: Line
  m_TagString: Untagged
  m_Icon: {fileID: 0}
  m_NavMeshLayer: 0
  m_StaticEditorFlags: 0
  m_IsActive: 1
--- !u!4 &4043674211349132
Transform:
  m_ObjectHideFlags: 1
  m_PrefabParentObject: {fileID: 0}
  m_PrefabInternal: {fileID: 100100000}
  m_GameObject: {fileID: 1804803424799282}
  m_LocalRotation: {x: 0, y: 0, z: 0, w: 1}
  m_LocalPosition: {x: 0, y: 0, z: 0}
  m_LocalScale: {x: 1, y: 1, z: 1}
  m_Children: []
  m_Father: {fileID: 0}
  m_RootOrder: 0
  m_LocalEulerAnglesHint: {x: 0, y: 0, z: 0}
--- !u!114 &114291481985681612
MonoBehaviour:
  m_ObjectHideFlags: 1
  m_PrefabParentObject: {fileID: 0}
  m_PrefabInternal: {fileID: 100100000}
  m_GameObject: {fileID: 1804803424799282}
  m_Enabled: 1
  m_EditorHideFlags: 0
  m_Script: {fileID: 11500000, guid: 40c2d6e9360160347b8e7da8393eac91, type: 3}
  m_Name: 
  m_EditorClassIdentifier: 
  m_flickerSpeed: 0.07
--- !u!120 &120299439688197072
LineRenderer:
  m_ObjectHideFlags: 1
  m_PrefabParentObject: {fileID: 0}
  m_PrefabInternal: {fileID: 100100000}
  m_GameObject: {fileID: 1804803424799282}
  m_Enabled: 1
  m_CastShadows: 1
  m_ReceiveShadows: 1
  m_DynamicOccludee: 1
  m_MotionVectors: 0
  m_LightProbeUsage: 0
  m_ReflectionProbeUsage: 0
  m_Materials:
  - {fileID: 10306, guid: 0000000000000000f000000000000000, type: 0}
  m_StaticBatchInfo:
    firstSubMesh: 0
    subMeshCount: 0
  m_StaticBatchRoot: {fileID: 0}
  m_ProbeAnchor: {fileID: 0}
  m_LightProbeVolumeOverride: {fileID: 0}
  m_ScaleInLightmap: 1
  m_PreserveUVs: 0
  m_IgnoreNormalsForChartDetection: 0
  m_ImportantGI: 0
  m_StitchLightmapSeams: 0
  m_SelectedEditorRenderState: 3
  m_MinimumChartSize: 4
  m_AutoUVMaxDistance: 0.5
  m_AutoUVMaxAngle: 89
  m_LightmapParameters: {fileID: 0}
  m_SortingLayerID: 0
  m_SortingLayer: 0
  m_SortingOrder: 0
  m_Positions:
  - {x: 0, y: 0, z: 0}
  - {x: 0, y: 0, z: 1}
  - {x: 0, y: 0, z: 1}
  - {x: 0, y: 0, z: 1}
  - {x: 0, y: 0, z: 1}
  - {x: 0, y: 0, z: 1}
  - {x: 0, y: 0, z: 1}
  - {x: 0, y: 0, z: 1}
  - {x: 0, y: 0, z: 1}
  - {x: 0, y: 0, z: 1}
  - {x: 0, y: 0, z: 1}
  - {x: 0, y: 0, z: 1}
  - {x: 0, y: 0, z: 1}
  - {x: 0, y: 0, z: 1}
  - {x: 0, y: 0, z: 1}
  - {x: 0, y: 0, z: 1}
  - {x: 0, y: 0, z: 1}
  - {x: 0, y: 0, z: 1}
  - {x: 0, y: 0, z: 1}
  - {x: 0, y: 0, z: 1}
  - {x: 0, y: 0, z: 1}
  - {x: 0, y: 0, z: 1}
  - {x: 0, y: 0, z: 1}
  - {x: 0, y: 0, z: 1}
  - {x: 0, y: 0, z: 1}
  - {x: 0, y: 0, z: 1}
  - {x: 0, y: 0, z: 1}
  - {x: 0, y: 0, z: 1}
  - {x: 0, y: 0, z: 1}
  - {x: 0, y: 0, z: 1}
  - {x: 0, y: 0, z: 1}
  - {x: 0, y: 0, z: 1}
  - {x: 0, y: 0, z: 1}
  - {x: 0, y: 0, z: 1}
  - {x: 0, y: 0, z: 1}
  - {x: 0, y: 0, z: 1}
  - {x: 0, y: 0, z: 1}
  - {x: 0, y: 0, z: 1}
  - {x: 0, y: 0, z: 1}
  - {x: 0, y: 0, z: 1}
  - {x: 0, y: 0, z: 1}
  - {x: 0, y: 0, z: 1}
  - {x: 0, y: 0, z: 1}
  - {x: 0, y: 0, z: 1}
  - {x: 0, y: 0, z: 1}
  - {x: 0, y: 0, z: 1}
  - {x: 0, y: 0, z: 1}
  - {x: 0, y: 0, z: 1}
  - {x: 0, y: 0, z: 1}
  - {x: 0, y: 0, z: 1}
  - {x: 0, y: 0, z: 1}
  - {x: 0, y: 0, z: 1}
  - {x: 0, y: 0, z: 1}
  - {x: 0, y: 0, z: 1}
  - {x: 0, y: 0, z: 1}
  - {x: 0, y: 0, z: 1}
  - {x: 0, y: 0, z: 1}
  - {x: 0, y: 0, z: 1}
  - {x: 0, y: 0, z: 1}
  - {x: 0, y: 0, z: 1}
  - {x: 0, y: 0, z: 1}
  - {x: 0, y: 0, z: 1}
  - {x: 0, y: 0, z: 1}
  - {x: 0, y: 0, z: 1}
  - {x: 0, y: 0, z: 1}
  - {x: 0, y: 0, z: 1}
  - {x: 0, y: 0, z: 1}
  - {x: 0, y: 0, z: 1}
  - {x: 0, y: 0, z: 1}
  - {x: 0, y: 0, z: 1}
  - {x: 0, y: 0, z: 1}
  - {x: 0, y: 0, z: 1}
  - {x: 0, y: 0, z: 1}
  - {x: 0, y: 0, z: 1}
  - {x: 0, y: 0, z: 1}
  - {x: 0, y: 0, z: 1}
  - {x: 0, y: 0, z: 1}
  - {x: 0, y: 0, z: 1}
  - {x: 0, y: 0, z: 1}
  - {x: 0, y: 0, z: 1}
  - {x: 0, y: 0, z: 1}
  - {x: 0, y: 0, z: 1}
  - {x: 0, y: 0, z: 1}
  - {x: 0, y: 0, z: 1}
  - {x: 0, y: 0, z: 1}
  - {x: 0, y: 0, z: 1}
  - {x: 0, y: 0, z: 1}
  - {x: 0, y: 0, z: 1}
  - {x: 0, y: 0, z: 1}
  - {x: 0, y: 0, z: 1}
  - {x: 0, y: 0, z: 1}
  - {x: 0, y: 0, z: 1}
  - {x: 0, y: 0, z: 1}
  - {x: 0, y: 0, z: 1}
  - {x: 0, y: 0, z: 1}
  - {x: 0, y: 0, z: 1}
  - {x: 0, y: 0, z: 1}
  - {x: 0, y: 0, z: 1}
  - {x: 0, y: 0, z: 1}
  - {x: 0, y: 0, z: 1}
  m_Parameters:
    serializedVersion: 2
    widthMultiplier: 0.1
    widthCurve:
      serializedVersion: 2
      m_Curve:
      - serializedVersion: 2
        time: 0
        value: 1
        inSlope: 0
        outSlope: 0
        tangentMode: 0
      m_PreInfinity: 2
      m_PostInfinity: 2
      m_RotationOrder: 4
    colorGradient:
      serializedVersion: 2
      key0: {r: 1, g: 0.972549, b: 0, a: 1}
      key1: {r: 1, g: 0.972549, b: 0, a: 1}
      key2: {r: 0, g: 0, b: 0, a: 0}
      key3: {r: 0, g: 0, b: 0, a: 0}
      key4: {r: 0, g: 0, b: 0, a: 0}
      key5: {r: 0, g: 0, b: 0, a: 0}
      key6: {r: 0, g: 0, b: 0, a: 0}
      key7: {r: 0, g: 0, b: 0, a: 0}
      ctime0: 0
      ctime1: 65535
      ctime2: 0
      ctime3: 0
      ctime4: 0
      ctime5: 0
      ctime6: 0
      ctime7: 0
      atime0: 0
      atime1: 65535
      atime2: 0
      atime3: 0
      atime4: 0
      atime5: 0
      atime6: 0
      atime7: 0
      m_Mode: 0
      m_NumColorKeys: 2
      m_NumAlphaKeys: 2
    numCornerVertices: 10
    numCapVertices: 10
    alignment: 0
    textureMode: 0
    generateLightingData: 0
  m_UseWorldSpace: 1
  m_Loop: 0
